1 10 20
100 200 125
201 210 89
900 1000 174
900 900 55
10 1 20
210 201 89
4 4 3
1 1 1
1000 900 174
85 84 10
400 600 142
5 25 24
6 76 116
8 91 116
4 10 20
25 600 144
63 91 116
2 900 179
48 99 119
52 98 119
84 99 119
90 500 144
64 469 144
23 39 112
23 17 21
127 1299 182
12 45 112
12 55 113
56 66 108
34 77 116
78 99 119
91 101 119
1 100 119
2 1000 179
3 10000 262
10000 10001 180
23 13 21
23 23 16
45 45 17
66 66 28
90 120 119
130 143 104
10 125 119
12 34 112
12 45 112
83 188 125
197 198 27
100 300 128
234 876 179
123 437 144
14 899 179
100 900 179
134 679 145
123 900 179
56 600 144
78 899 179
899 1999 182
1300 7800 262
123 8870 262
340 678 145
237 288 123
100 177 125
156 800 171
134 678 145
135 821 171
1876 2000 175
1677 1899 180
132 145 117
321 500 144
981 177 179
138 988 179
788 900 179
911 1400 182
981 1781 182
191 200 120
871 1999 182
908 807 179
186 1765 182
163 1765 182
162 732 171
163 766 171
253 399 144
165 2992 217
133 993 179
114 1886 182
1664 2000 180
155 766 171
161 811 171
166 911 179
988 9008 262
133 632 144
155 899 179
133 677 145
177 922 179
188 299 128
133 778 171
1771 1888 175
165 1999 182
165 180 125
556 778 171
