1 10 20
100 200 125
201 210 89
900 1000 174
10 1 20
200 100 125
210 201 89
1000 900 174
1 1 1
1 2 2
999999 999998 259
50 100 119
100 50 119
125 89 119
89 125 119
10 15 18
500 550 137
1000 2000 182
2000 3000 217
3000 4000 238
4000 5000 215
5000 6000 236
6000 7000 262
7000 8000 252
8000 9000 247
9000 10000 260
1 256 128
132 354 144
99 9999 262
1321 54654 340
8543 93282 351
1322 71734 340
465 10718 262
3836 43211 324
222222 222223 117
3234 20593 279
53489 93824 351
438 87264 351
2394 43290 324
59873 2103 340
83192 438 351
3821 85492 351
543 54907 340
89653 94328 333
123 45678 324
69 1069 179
80085 100008 333
777 7777 262
11 1111 179
22 2222 182
5 15 20
15 20 21
25 30 112
30 25 112
999950 999999 259
45 150 122
1500 1000 182
20000 1 279
23 20000 279
75 15000 276
15000 20000 279
100000 101000 341
9000 15000 276
11111 12222 250
500000 501000 364
600000 601000 372
777777 777778 155
888888 888889 119
999997 999999 259
999900 999999 259
999980 999999 259
999900 999999 259
450000 450007 232
70 1700 182
3 300 128
9680 47539 324
1753 4831 238
893 5432 238
8722 21742 279
5439 9123 262
1847 713 182
74818 74927 232
261 9483 262
75384 58943 335
1648 8281 262
4858 7829 262
918 4322 238
8493 9283 260
61847 63293 317
777 7777 262
392 9437 262
617 9453 262
4854 8232 262
66 66 28
371 85430 351
5483 7231 262
75439 89045 351
1354 85439 351
3824 7432 262
4314 5435 215
314 7653 262
