...................
----------------------------------------------------------------------
Ran 19 tests in 0.020s

OK
Name             Stmts   Miss Branch BrPart  Cover   Missing
------------------------------------------------------------
Collatz.py          50     16     22      1    60%   42-66
TestCollatz.py      83      0      2      0   100%
------------------------------------------------------------
TOTAL              133     16     24      1    82%
