...................
----------------------------------------------------------------------
Ran 19 tests in 4.872s

OK
Name             Stmts   Miss Branch BrPart  Cover   Missing
------------------------------------------------------------
Collatz.py          41      0     14      0   100%
TestCollatz.py      82      0      2      0   100%
------------------------------------------------------------
TOTAL              123      0     16      0   100%