1 10 20
100 200 125
201 210 89
900 1000 174
615 8269 262
4571 9833 262
6049 8729 262
5736 6293 262
582 5454 238
4629 6255 262
824 4886 238
1693 8430 262
2655 4101 238
1524 9512 262
1089 5058 238
881 8296 262
3836 4426 215
931 2201 182
6305 7155 257
4273 7107 262
5794 9478 262
2243 5565 238
4829 9217 262
227 6292 262
803 5591 238
2593 5862 238
2092 9379 262
5505 7165 262
487 5416 238
7767 8810 252
1443 4820 238
2497 8849 262
488 5344 238
1588 4263 238
57 84 116
87 94 106
4 4 3
33 41 110
39 69 113
16 60 113
26 84 116
24 95 116
80 100 119
19 37 112
54 87 116
23 24 16
18 93 116
5 39 112
50 77 116
87 91 93
8 88 116
23 48 112
27 74 116
22 100 119
12 15 18
6 56 113
15 25 24
27 91 116
16 72 113
79 89 111
13 73 116
14 88 116
17 18 21
33 38 27
59 74 116
49 72 113
7 70 113
46 85 116
55 89 116
19 26 24
25 56 113
79 82 111
59 60 33
7 21 21
8 14 20
15 33 112
6 47 112
2 30 112
28 45 110
1 34 112
34 46 110
9 42 112
23 50 112
4 44 112
15 21 21
4 14 20
15 21 21
36 43 110
25 28 112
3 48 112
4 13 20
19 49 112
27 45 112
27 36 112
34 41 110
17 32 112
24 47 112
7 43 112
7 14 20
6 48 112
32 32 6
16 50 112
7 50 112
34 48 110
invalid
invalid
invalid
invalid
invalid
invalid
invalid
invalid
invalid
invalid
invalid
invalid
invalid
invalid
invalid
invalid
invalid
invalid
invalid
invalid
invalid
invalid
invalid
invalid
invalid
1 999999 525
900000 999999 507
23746 37849 324
72347 89327 351
45625 91387 351
12346 24389 282
23892 137489 354
324783 342294 366
136749 893427 525
42483 999999 525
