.......................
----------------------------------------------------------------------
Ran 23 tests in 0.008s

OK
Name             Stmts   Miss Branch BrPart  Cover   Missing
------------------------------------------------------------
Collatz.py          55      0     30      0   100%
TestCollatz.py      92      0      2      0   100%
------------------------------------------------------------
TOTAL              147      0     32      0   100%
