.............
----------------------------------------------------------------------
Ran 13 tests in 5.058s

OK
Name             Stmts   Miss Branch BrPart  Cover   Missing
------------------------------------------------------------
Collatz.py          24      0      8      0   100%
TestCollatz.py      60      0      2      0   100%
------------------------------------------------------------
TOTAL               84      0     10      0   100%
