1 10 20
100 200 125
201 210 89
900 1000 174
222 232 128
300 1000 179
10 1 20
30 40 107
70000 80000 351
689 2 145
76289 102034 351
72739 94590 351
999999 1 525
1 999999 525
898899 345680 525
123456 78910 354
467890 7878 449
10000 10000 30
65345 13405 340
1 1 1
999999 999999 259
246890 145678 443
456 900467 525
67098 34210 340
219390 71356 386
6890 4568 262
234589 97653 443
56790 7234 340
45324 712478 509
23589 34567 311
876423 78901 525
67892 21678 340
8917 5412 262
6143 7321 262
91346 80345 333
6781 78912 351
6111 71111 340
91934 8975 351
7542 5678 262
21567 9764 279
8045 70139 340
87460 89014 333
55554 66655 335
44444 333333 443
99999 888888 525
11111 222222 386
333 4444 238
66666 7777 340
3434 56566 340
21345 78737 351
56789 34456 340
13459 71569 340
67145 13560 340
77713 94667 338
356789 567901 470
52134 98234 351
89807 34689 351
15689 56433 340
73455 312566 443
34689 90124 351
14790 64219 340
5356 8787 262
1045 10145 262
88888 9999 351
3333 2222 217
1114 66679 340
78912 56432 351
7045 72345 340
100456 900134 525
31489 70145 340
90978 30567 351
5555 5555 130
7866 97145 351
8908 9078 247
43 40 110
105 207 125
901 1000 174
3000 4000 238
9000 10000 260
5419 89145 351
2000 1000 182
4905 89015 351
3469 2479 217
8760 35680 324
20 100 119
30 3000 217
89 98 119
37 73 116
901 109 179
508 605 137
1467 7564 262
21 12 21
112 114 34
918 819 179
334 443 134
7034 43014 324
3875 5735 236
30 60 113
90 210 125
180 420 144
4460 5560 210
1901 1098 182
32 64 113
98 1000 179
680 1324 182
975 10964 262
149 150 24
270 560 144
4781 1874 238
300000 400000 441
90001 100001 333
88 99 119
23 67 113
10 999999 525
9090 109090 354
