...................
----------------------------------------------------------------------
Ran 19 tests in 0.973s

OK
Name             Stmts   Miss Branch BrPart  Cover   Missing
------------------------------------------------------------
Collatz.py         123      0     70      0   100%
TestCollatz.py      83      0      2      0   100%
------------------------------------------------------------
TOTAL              206      0     72      0   100%