......................
----------------------------------------------------------------------
Ran 22 tests in 0.531s

OK
Name             Stmts   Miss Branch BrPart  Cover   Missing
------------------------------------------------------------
Collatz.py          69      3     40      4    92%   89->95, 99->105, 105->118, 120-123
TestCollatz.py      92      0      2      0   100%
------------------------------------------------------------
TOTAL              161      3     42      4    96%
