...............
----------------------------------------------------------------------
Ran 15 tests in 0.127s

OK
Name             Stmts   Miss Branch BrPart  Cover   Missing
------------------------------------------------------------
Collatz.py          52      0     26      0   100%
TestCollatz.py      66      0      2      0   100%
------------------------------------------------------------
TOTAL              118      0     28      0   100%
