.............
----------------------------------------------------------------------
Ran 15 tests in 0.213s
OK
Name             Stmts   Miss Branch BrPart  Cover   Missing
------------------------------------------------------------
Collatz.py          112     0     10      0   100%
TestCollatz.py      69      0      2      0   100%
------------------------------------------------------------
TOTAL               93      0     12      0   100%
