1 10 20
100 200 125
201 210 89
900 1000 174
1 999997 525
890395 365247 525
7145 155257 375
214144 123292 383
847709 937646 476
681517 163864 509
223406 691746 509
465519 647619 509
129444 422039 449
835786 850656 525
929367 343965 525
822718 281521 509
955227 112408 525
809629 709418 468
26792 830907 509
427512 716264 509
454333 317907 449
81511 461477 449
473163 809858 509
584768 835076 509
261709 780490 509
513144 485115 470
986440 978663 427
646938 115885 509
400702 482724 449
966540 844274 507
826688 303464 509
125795 781916 509
415871 449628 418
5539 956867 525
280535 433050 449
673131 734868 504
750957 268846 509
710549 738324 424
592908 809522 509
573401 854616 525
590012 86545 470
853935 576452 525
65208 15079 340
692336 465910 509
497802 173082 449
310184 838695 525
990749 950182 458
620611 920824 525
399811 140354 443
877691 194550 525
573403 550822 421
443622 838564 525
333872 154172 443
576889 926779 525
963693 150290 525
295601 67910 443
751038 663740 504
644361 816246 504
678818 850902 525
426463 64504 449
635095 355034 509
48601 269900 443
680969 174483 509
653307 616477 509
514343 234701 470
794883 880290 525
655642 644979 385
454224 872859 525
408083 632566 509
14192 563533 470
374860 445594 449
56679 696349 509
419980 998314 525
567626 274758 470
60563 508294 449
853465 695657 525
863327 902066 445
479762 58502 449
76549 647273 509
674978 105096 509
881974 984065 507
499590 537616 470
143250 953813 525
924679 551332 525
100585 453076 449
629070 475444 509
898669 199953 525
171793 318649 443
198268 253624 443
593406 258830 470
761917 446872 509
468691 139449 449
863142 462657 525
197950 453895 449
109931 872928 525
558990 991904 525
665857 709324 504
788765 850560 525
194947 231514 443
76066 677381 509
254245 928753 525
95499 235 351
398272 347969 436
155230 684823 509
267645 431702 449
527825 962137 525
574277 689194 509
878317 594259 525
336790 393531 441
925896 640151 525
447469 707527 509
14820 627530 509
931055 803585 525
478090 640206 509
549303 68361 470
317587 317752 278
997113 413086 525
317986 909590 525
275259 987419 525
594413 57109 470
419122 636442 509
533450 507603 470
839840 925971 476
