1 10 20
100 200 125
201 210 89
900 1000 174
78234 78324 276
123 239324 443
34 492 144
345 9023 262
8902 4382 262
32405 87293 351
56656 55656 322
987 1002 143
12 98 119
119823 120111 243
150834 150134 339
150001 153490 370
183024 205829 360
235091 235002 306
298300 305872 371
329417 329415 154
459120 461230 307
83 1007 179
9763 12380 268
83204 98234 333
24294 23983 251
912093 2 525
303455 304352 340
498234 456493 444
399889 398898 330
378908 348923 423
8723 9823 260
393487 387129 436
192342 129238 383
600 29 144
54295 62429 335
283749 284320 314
93284 92340 315
45678 345678 443
463120 493284 426
203929 203781 205
72472 72384 206
7624 5782 262
304 923 179
202345 301923 443
488888 488888 139
398243 398243 162
456987 456098 356
487349 483474 382
348323 347624 304
201248 201498 267
100202 101202 297
200000 209999 373
99999 100000 227
500000 999999 525
500000 500000 152
501030 760969 509
501000 669209 509
501939 594029 470
878690 695049 525
690495 596004 509
893029 694049 525
784950 648930 504
879505 693095 525
790439 695039 504
785930 507890 509
999959 790895 525
950795 687950 525
789805 567896 509
780964 760040 468
694005 689804 442
798960 790605 468
2 795098 509
894059 100 525
790496 960496 525
794059 798046 468
493059 797509 509
898906 796059 525
895049 789083 525
590392 589049 359
594495 579049 434
893395 999992 507
783934 750397 468
790395 780496 406
890393 870293 445
890294 890496 264
890489 893039 326
899897 945505 507
905789 999579 507
600495 798055 509
890495 890495 171
890599 890695 295
669505 684964 385
980858 986970 427
706094 706095 199
897095 400 525
500987 500079 364
890968 890958 119
890456 890845 326
504409 597907 470
794089 502452 509
793049 705349 468
695095 669508 442
599999 600001 227
